<svg id="Layer_1" xmlns="http://www.w3.org/2000/svg" viewBox="0 0 807 452.3">
    <style>
        .st0{stroke:#ea1c24;stroke-width:10px;stroke-linecap="round";}
        .st1{stroke:#2794de;stroke-width:10px;stroke-linecap="round";}
        .st2{stroke:#f5c41d;stroke-width:10px;stroke-linecap="round";}
        .st3{stroke:#70c541;stroke-width:10px;stroke-linecap="round";}
        .st4{stroke:#bc1c88;stroke-width:10px;stroke-linecap="round";}
        .st5{stroke:#85b7e5;stroke-width:10px;stroke-linecap="round";}
        .st0{fill:#FFF}
        .st1{fill:#FFF}
        .st2{fill:#FFF}
        .st3{fill:#FFF}
        .st4{fill:#FFF}
        .st5{fill:#FFF}
    </style>
    <path class="st5 LxfJtGGU_0"
          d="M0.19999999999999574,48.8A48.6,48.6 0,1,1 97.4,48.8A48.6,48.6 0,1,1 0.19999999999999574,48.8"></path>
    <path class="st4 LxfJtGGU_1"
          d="M48.8 334C21.8 334 0 312.2 0 285.3V167c0-26.9 21.8-48.8 48.8-48.8S97.6 140 97.6 167v118.3c-.1 26.9-21.9 48.7-48.8 48.7z"></path>
    <path class="st3 LxfJtGGU_2"
          d="M285.3 334c-92.1 0-167-74.9-167-167 0-26.9 21.8-48.8 48.8-48.8s48.8 21.8 48.8 48.8c0 38.3 31.2 69.5 69.5 69.5 26.9 0 48.8 21.8 48.8 48.8s-22 48.7-48.9 48.7z"></path>
    <path class="st2 LxfJtGGU_3"
          d="M403.5 215.8c-26.9 0-48.8-21.8-48.8-48.8 0-38.3-31.2-69.5-69.5-69.5s-69.5 31.2-69.5 69.5c0 26.9-21.8 48.8-48.8 48.8S118.1 194 118.1 167c0-92.1 74.9-167 167-167s167 74.9 167 167c.2 26.9-21.6 48.8-48.6 48.8z"></path>
    <path class="st0 LxfJtGGU_4"
          d="M403.5 452.3c-26.9 0-48.8-21.8-48.8-48.8V167c0-26.9 21.8-48.8 48.8-48.8 26.9 0 48.8 21.8 48.8 48.8v236.5c0 27-21.8 48.8-48.8 48.8z"></path>
    <path class="st1 LxfJtGGU_5"
          d="M640 334c-92.1 0-167-74.9-167-167 0-26.9 21.8-48.8 48.8-48.8 26.9 0 48.8 21.8 48.8 48.8 0 38.3 31.2 69.5 69.5 69.5s69.5-31.2 69.5-69.5c0-26.9 21.8-48.8 48.8-48.8 26.9 0 48.8 21.8 48.8 48.8-.2 92.1-75.1 167-167.2 167z"></path>
    <style>
        .LxfJtGGU_0{stroke-dasharray:306 308;stroke-dashoffset:307;animation:LxfJtGGU_draw_0 5100ms ease-in-out 0ms
        infinite,LxfJtGGU_fade 5100ms linear 0ms infinite;}
        .LxfJtGGU_1{stroke-dasharray:544
        546;stroke-dashoffset:545;animation:LxfJtGGU_draw_1 5100ms ease-in-out 0ms infinite,LxfJtGGU_fade 5100ms linear
        0ms infinite;}
        .LxfJtGGU_2{stroke-dasharray:679 681;stroke-dashoffset:680;animation:LxfJtGGU_draw_2 5100ms
        ease-in-out 0ms infinite,LxfJtGGU_fade 5100ms linear 0ms infinite;}
        .LxfJtGGU_3{stroke-dasharray:1050
        1052;stroke-dashoffset:1051;animation:LxfJtGGU_draw_3 5100ms ease-in-out 0ms infinite,LxfJtGGU_fade 5100ms
        linear 0ms infinite;}
        .LxfJtGGU_4{stroke-dasharray:780 782;stroke-dashoffset:781;animation:LxfJtGGU_draw_4 5100ms
        ease-in-out 0ms infinite,LxfJtGGU_fade 5100ms linear 0ms infinite;}
        .LxfJtGGU_5{stroke-dasharray:1050
        1052;stroke-dashoffset:1051;animation:LxfJtGGU_draw_5 5100ms ease-in-out 0ms infinite,LxfJtGGU_fade 5100ms
        linear 0ms infinite;}
        @keyframes LxfJtGGU_draw{100%{stroke-dashoffset:0;}}
        @keyframes
        LxfJtGGU_fade{0%{stroke-opacity:1;}84.31372549019608%{stroke-opacity:1;}100%{stroke-opacity:0;}}
        @keyframes
        LxfJtGGU_draw_0{15.686274509803921%{stroke-dashoffset: 307}49.01960784313725%{ stroke-dashoffset: 0;}100%{
        stroke-dashoffset: 0;}}
        @keyframes LxfJtGGU_draw_1{18.823529411764707%{stroke-dashoffset:
        545}52.156862745098046%{ stroke-dashoffset: 0;}100%{ stroke-dashoffset: 0;}}
        @keyframes
        LxfJtGGU_draw_2{21.96078431372549%{stroke-dashoffset: 680}55.294117647058826%{ stroke-dashoffset: 0;}100%{
        stroke-dashoffset: 0;}}
        @keyframes LxfJtGGU_draw_3{25.098039215686274%{stroke-dashoffset:
        1051}58.43137254901961%{ stroke-dashoffset: 0;}100%{ stroke-dashoffset: 0;}}
        @keyframes
        LxfJtGGU_draw_4{28.235294117647058%{stroke-dashoffset: 781}61.568627450980394%{ stroke-dashoffset: 0;}100%{
        stroke-dashoffset: 0;}}
        @keyframes LxfJtGGU_draw_5{31.372549019607842%{stroke-dashoffset:
        1051}64.70588235294117%{ stroke-dashoffset: 0;}100%{ stroke-dashoffset: 0;}}
    </style>
</svg>