<svg id="Layer_1" xmlns="http://www.w3.org/2000/svg" viewBox="0 0 807 452.3">
    <style>
        <!--.st0{stroke:#ea1c24;stroke-width:2px;stroke-linecap="round";}-->
        <!--.st1{stroke:#2794de;stroke-width:2px;stroke-linecap="round";}-->
        <!--.st2{stroke:#f5c41d;stroke-width:2px;stroke-linecap="round";}-->
        <!--.st3{stroke:#70c541;stroke-width:2px;stroke-linecap="round";}-->
        <!--.st4{stroke:#bc1c88;stroke-width:2px;stroke-linecap="round";}-->
        <!--.st5{stroke:#85b7e5;stroke-width:2px;stroke-linecap="round";}-->
        .st0{fill:#ea1c24;animation-delay:-500ms;}
        .st1{fill:#2794de;animation-delay:-500ms;}
        .st2{fill:#f5c41d;animation-delay:-500ms;}
        .st3{fill:#70c541;animation-delay:-500ms;}
        .st4{fill:#bc1c88;animation-delay:-500ms;}
        .st5{fill:#85b7e5;animation-delay:-500ms;}
    </style>
    <path class="st5 LxfJtGGU_0"
          d="M0.19999999999999574,48.8A48.6,48.6 0,1,1 97.4,48.8A48.6,48.6 0,1,1 0.19999999999999574,48.8"></path>
    <path class="st4 LxfJtGGU_1"
          d="M48.8 334C21.8 334 0 312.2 0 285.3V167c0-26.9 21.8-48.8 48.8-48.8S97.6 140 97.6 167v118.3c-.1 26.9-21.9 48.7-48.8 48.7z"></path>
    <path class="st3 LxfJtGGU_2"
          d="M285.3 334c-92.1 0-167-74.9-167-167 0-26.9 21.8-48.8 48.8-48.8s48.8 21.8 48.8 48.8c0 38.3 31.2 69.5 69.5 69.5 26.9 0 48.8 21.8 48.8 48.8s-22 48.7-48.9 48.7z"></path>
    <path class="st2 LxfJtGGU_3"
          d="M403.5 215.8c-26.9 0-48.8-21.8-48.8-48.8 0-38.3-31.2-69.5-69.5-69.5s-69.5 31.2-69.5 69.5c0 26.9-21.8 48.8-48.8 48.8S118.1 194 118.1 167c0-92.1 74.9-167 167-167s167 74.9 167 167c.2 26.9-21.6 48.8-48.6 48.8z"></path>
    <path class="st0 LxfJtGGU_4"
          d="M403.5 452.3c-26.9 0-48.8-21.8-48.8-48.8V167c0-26.9 21.8-48.8 48.8-48.8 26.9 0 48.8 21.8 48.8 48.8v236.5c0 27-21.8 48.8-48.8 48.8z"></path>
    <path class="st1 LxfJtGGU_5"
          d="M640 334c-92.1 0-167-74.9-167-167 0-26.9 21.8-48.8 48.8-48.8 26.9 0 48.8 21.8 48.8 48.8 0 38.3 31.2 69.5 69.5 69.5s69.5-31.2 69.5-69.5c0-26.9 21.8-48.8 48.8-48.8 26.9 0 48.8 21.8 48.8 48.8-.2 92.1-75.1 167-167.2 167z"></path>
    <style>
        .LxfJtGGU_0{animation:LxfJtGGU_draw_0 2500ms linear 0ms infinite,LxfJtGGU_fade 2500ms linear 0ms infinite;}
        .LxfJtGGU_1{animation:LxfJtGGU_draw_1 2500ms linear 0ms infinite,LxfJtGGU_fade 2500ms linear 0ms infinite;}
        .LxfJtGGU_2{animation:LxfJtGGU_draw_2 2500ms linear 0ms infinite,LxfJtGGU_fade 2500ms linear 0ms infinite;}
        .LxfJtGGU_3{animation:LxfJtGGU_draw_3 2500ms linear 0ms infinite,LxfJtGGU_fade 2500ms linear 0ms infinite;}
        .LxfJtGGU_4{animation:LxfJtGGU_draw_4 2500ms linear 0ms infinite,LxfJtGGU_fade 2500ms linear 0ms infinite;}
        .LxfJtGGU_5{animation:LxfJtGGU_draw_5 2500ms linear 0ms infinite,LxfJtGGU_fade 2500ms linear 0ms infinite;}
        @keyframes LxfJtGGU_draw_0{
            0%{fill:#fff;}
            5%{fill:#85b7e5;}
            89.31372549019608%{fill:#85b7e5;}
            100%{fill:#fff;}
        }
        @keyframes LxfJtGGU_draw_1{
            0%{fill:#fff;}
            4%{fill:#fff;}
            9%{fill:#bc1c88;}
            89.31372549019608%{fill:#bc1c88;}
            100%{fill:#fff;}
        }
        @keyframes LxfJtGGU_draw_4{
            0%{fill:#fff;}
            8%{fill:#fff;}
            13%{fill:#ea1c24;}
            89.31372549019608%{fill:#ea1c24;}
            100%{fill:#fff;}
        }
        @keyframes LxfJtGGU_draw_3{
            0%{fill:#fff;}
            10%{fill:#fff;}
            15%{fill:#70c541;}
            89.31372549019608%{fill:#70c541;}
            100%{fill:#fff;}
        }
        @keyframes LxfJtGGU_draw_2{
            0%{fill:#fff;}
            12%{fill:#fff;}
            17%{fill:#f5c41d;}
            89.31372549019608%{fill:#f5c41d;}
            100%{fill:#fff;}
        }
        @keyframes LxfJtGGU_draw_5{
            0%{fill:#fff;}
            15%{fill:#fff;}
            20%{fill:#2794de;}
            89.31372549019608%{fill:#2794de;}
            100%{fill:#fff;}
        }
    </style>
</svg>