<svg xmlns="http://www.w3.org/2000/svg" width="24" height="23.719" viewBox="0 0 24 23.719">
  <metadata><?xpacket begin="﻿" id="W5M0MpCehiHzreSzNTczkc9d"?>
<x:xmpmeta xmlns:x="adobe:ns:meta/" x:xmptk="Adobe XMP Core 5.6-c138 79.159824, 2016/09/14-01:09:01        ">
   <rdf:RDF xmlns:rdf="http://www.w3.org/1999/02/22-rdf-syntax-ns#">
      <rdf:Description rdf:about=""/>
   </rdf:RDF>
</x:xmpmeta>
                                                                                                    
                                                                                                    
                                                                                                    
                                                                                                    
                                                                                                    
                                                                                                    
                                                                                                    
                                                                                                    
                                                                                                    
                                                                                                    
                                                                                                    
                                                                                                    
                                                                                                    
                                                                                                    
                                                                                                    
                                                                                                    
                                                                                                    
                                                                                                    
                                                                                                    
                                                                                                    
                           
<?xpacket end="w"?></metadata>
<defs>
    <style>
      .cls-1 {
        fill: #8a99a9;
        fill-rule: evenodd;
      }
    </style>
  </defs>
  <path id="Forma_1" data-name="Forma 1" class="cls-1" d="M38,544.944a6.676,6.676,0,0,0-6.677,5.554,6.365,6.365,0,0,0,1.67,5.2,6.537,6.537,0,0,1,1.773,4.493l0,2.624a1.95,1.95,0,0,0,1.984,1.918H39.3a1.95,1.95,0,0,0,1.984-1.918l0-2.624a6.156,6.156,0,0,1,1.67-4.391,6.2,6.2,0,0,0,1.827-4.392A6.654,6.654,0,0,0,38,544.944Zm2.292,17.871a0.923,0.923,0,0,1-.941.911H36.8a0.919,0.919,0,0,1-.941-0.911v-1.162h4.433v1.162h0Zm1.935-7.722a7.136,7.136,0,0,0-1.984,5.1v0.455H35.81v-0.455a7.717,7.717,0,0,0-2.087-5.147,5.287,5.287,0,0,1-1.411-4.391,5.738,5.738,0,0,1,5.687-4.7,5.616,5.616,0,0,1,5.741,5.452A5.244,5.244,0,0,1,42.227,555.093Zm-4.751-14.085h1.043v2.421H37.476v-2.421Zm6.848,4.668,0.73,0.721,1.788-1.7-0.735-.722Zm3.12,6.236H50v1.012H47.444v-1.012Zm-21.446,0h2.557v1.012H26v-1.012Zm3.875-7.941-0.735.722,1.788,1.7,0.73-.721Z" transform="translate(-26 -541)"/>
</svg>
